@startuml
left to right direction
skinparam ClassAttributeIconSize 0

class Client {
    -ClientId: int
    +ClientName: string
    +ClientAddress: string
    +ClientPhone: string
    +ClientEvents: list<Event>
}

class Contract{
    -ContractId: int
    +Client: Client
    +ChosenServices: list<Service>
    +ContractStartData: string
    +ContractEndData: stringF
    +AssignedGroups: list<Group>
    +ContractStatus: string
}

class Event {
    -EventId: int
    +EventDate: string
    +Group: group
    +EventDescription: string or filename
}

class Group {
    -GroupId: int
    +GroupWorkers: set<Worker>
}


class Job {
    -JobId: int
    +JobName: string
    +JobSalary: double
}

class Service {
    -ServiceId: int
    +ServiceName: string
    +ServiceCostPerYear: double
    +ServiceDescription: string
}

class Worker {
    -WorkerId: int
    +WorkerName: string
    +WorkerJob: Job
    +WorkerPhone: string
}

class Datacollection {
    -CollectionId: int
    +getActiveContracts(): list<Contract>
}

class Mainscreen {
    -id: int
    +welconing_message(): void
    +available_options(): void
    +get_user_input(): int
}

class Application {

}

Client "1" -- "0..*" Event

Contract "1" -- "1..*" Service
Contract "1" -- "1..*" Group

Event "1" -- "1" Group

Group "1" -- "1..*" Worker

Worker "1" -- "1" Job

Datacollection "1" -- "1..*" Contract
Datacollection "1" -- "1..*" Service
Datacollection "1" -- "1..*" Group
Datacollection "1" -- "1..*" Worker
Datacollection "1" -- "1..*" Job

Application -- Datacollection
Application -- Mainscreen


@enduml